{
  "jsonrpc": "2.0",
  "result": {
    "meta": {
      "totalCount": 285,
      "pageCount": 95,
      "currentPage": 1,
      "perPage": 3
    },
    "body": [
      {
        "id": 1,
        "title": "Білімал. Электронды мектеп"
      },
      {
        "id": 2,
        "name": "Білімал. Электронды колледж"
      },
      {
        "id": 3,
        "name": "Білімал. Аналитика"
      },
      {
        "id": 4,
        "name": "Білімал. ПедАтт"
      },
      {
        "id": 5,
        "name": "Система дистанционного обучения и тестирования"
      },
      {
        "id": 6,
        "name": "Edu-Mark"
      }
    ]
  }
}